IS415 blog: Take Home Exercise 02
…
Show code

hotels <- read_csv("data/aspatial/hotels.csv")

4.2.1.2 Examine the file

The following code uses list function of base R to examine the imported file

Show code

list(hotels)

[[1]]
# A tibble: 422 x 9
   NAME     ADDRESSPOSTALCODE ADDRESSSTREETNAME HYPERLINK   TOTALROOMS
   <chr>                <dbl> <chr>             <chr>            <dbl>
 1 Jayleen~             59390 25 New Bridge Ro~ jayleencla~         20
 2 JEN Sin~            238858 277 Orchard Road~ singaporeo~        499
 3 JEN Sin~            249716 1A Cuscaden Road  singaporet~        565
 4 JH HOTEL            399041 8 LORONG 10 GEYL~ anguskt@gm~         42
 5 Ji Hote~            238485 11 PENANG LANE I~ <NA>                81
 6 Jin Don~            399007 33 Lorong 12 Gey~ <NA>                33
 7 Joyfor ~            389226 135 Geylang Road  joyfor.sg@~         17
 8 JW Marr~            189763 30 Beach Road     jw.sinjw.c~        634
 9 K Hotel             399199 44 LORONG 6 GEYL~ <NA>                56
10 Holiday~            423371 88 EAST COAST RO~ <NA>               451
# ... with 412 more rows, and 4 more variables: KEEPERNAME <chr>,
#   Lat <dbl>, Lng <dbl>, ICON_NAME <chr>
…
Show code

tourism <- read_csv("data/aspatial/tourism.csv")

4.2.2.2 Examine the file

The following code uses list function of base R to examine the imported file

Show code

list(tourism)

[[1]]
# A tibble: 107 x 17
   NAME   DESCRIPTION  ADDRESSSTREETNA~ HYPERLINK  PHOTOURL  URL_PATH 
   <chr>  <chr>        <chr>            <chr>      <chr>     <chr>    
 1 China~ Experience ~ 48 Pagoda Street http://ww~ www.your~ www.your~
 2 Thian~ Beautifully~ 158 Telok Ayer ~ http://ww~ www.your~ www.your~
 3 Euras~ This engagi~ 139 Ceylon Road  http://ww~ www.your~ www.your~
 4 Shoph~ With many b~ <NA>             <NA>       www.your~ www.your~
 5 Capit~ The queen o~ 11 Stamford Road http://ww~ www.your~ www.your~
 6 Espla~ This boldly~ 1 Esplanade Dri~ http://ww~ www.your~ www.your~
 7 Garde~ The lush an~ 18 Marina Garde~ http://ww~ www.your~ www.your~
 8 The I~ Theres mor~ 180-226 Depot R~ http://ww~ <NA>      www.your~
 9 PARKR~ PARKROYAL o~ 3 Upper Pickeri~ http://ww~ www.your~ www.your~
10 Lasal~ How can som~ 1 McNally Street https://w~ www.your~ www.your~
# ... with 97 more rows, and 11 more variables: IMAGE_ALT_TEXT <chr>,
#   PHOTOCREDITS <chr>, LASTMODIFIED <dttm>, LATITUDE <dbl>,
#   LONGTITUDE <dbl>, META_DESCRIPTION <chr>, OPENING_HOURS <chr>,
#   Lat <dbl>, Lng <dbl>, ICON_NAME <chr>, ADDRESSPOSTALCODE <dbl>
…
Show code

airbnb0619 <- read_csv("data/aspatial/listings30062019.csv")

4.2.3.2 Examine the file

The following code uses list function of base R to examine the imported file

Show code

list(airbnb0619)

[[1]]
# A tibble: 8,293 x 16
       id name        host_id host_name neighbourhood_g~ neighbourhood
    <dbl> <chr>         <dbl> <chr>     <chr>            <chr>        
 1  49091 "COZICOMFO~  266763 Francesca North Region     Woodlands    
 2  50646 "Pleasant ~  227796 Sujatha   Central Region   Bukit Timah  
 3  56334 "COZICOMFO~  266763 Francesca North Region     Woodlands    
 4  71609 "Ensuite R~  367042 Belinda   East Region      Tampines     
 5  71896 "B&B  Room~  367042 Belinda   East Region      Tampines     
 6  71903 "Room 2-ne~  367042 Belinda   East Region      Tampines     
 7  71907 "3rd level~  367042 Belinda   East Region      Tampines     
 8 151547 "En-suite ~  729617 Kanchuya  Central Region   Orchard      
 9 241503 "Long stay~ 1017645 Bianca    East Region      Bedok        
10 241508 "Long stay~ 1017645 Bianca    East Region      Bedok        
# ... with 8,283 more rows, and 10 more variables: latitude <dbl>,
#   longitude <dbl>, room_type <chr>, price <dbl>,
#   minimum_nights <dbl>, number_of_reviews <dbl>,
#   last_review <date>, reviews_per_month <dbl>,
#   calculated_host_listings_count <dbl>, availability_365 <dbl>
…
Show code

airbnb0721 <- read_csv("data/aspatial/listings19072021.csv")

4.2.4.2 Examine the file

The following code uses list function of base R to examine the imported file

Show code

list(airbnb0721)

[[1]]
# A tibble: 4,252 x 16
       id name        host_id host_name neighbourhood_g~ neighbourhood
    <dbl> <chr>         <dbl> <chr>     <chr>            <chr>        
 1  50646 Pleasant R~  227796 Sujatha   Central Region   Bukit Timah  
 2  71609 Ensuite Ro~  367042 Belinda   East Region      Tampines     
 3  71896 B&B  Room ~  367042 Belinda   East Region      Tampines     
 4  71903 Room 2-nea~  367042 Belinda   East Region      Tampines     
 5 275343 Convenient~ 1439258 Joyce     Central Region   Bukit Merah  
 6 275344 15 mins to~ 1439258 Joyce     Central Region   Bukit Merah  
 7 294281 5 mins wal~ 1521514 Elizabeth Central Region   Newton       
 8 301247 Nice room ~ 1552002 Rahul     Central Region   Geylang      
 9 324945 20 Mins to~ 1439258 Joyce     Central Region   Bukit Merah  
10 330089 Accomo@ RE~ 1439258 Joyce     Central Region   Bukit Merah  
# ... with 4,242 more rows, and 10 more variables: latitude <dbl>,
#   longitude <dbl>, room_type <chr>, price <dbl>,
#   minimum_nights <dbl>, number_of_reviews <dbl>,
#   last_review <date>, reviews_per_month <dbl>,
#   calculated_host_listings_count <dbl>, availability_365 <dbl>
…
